{
  "log": {
    "loglevel": "info"
  },
  "inbounds": [{
      "port": 10080,
      "protocol": "socks",
      "sniffing": {
        "enabled": true,
        "destOverride": [
          "http",
          "tls"
        ]
      },
      "settings": {
        "udp": true // 开启 UDP 协议支持
      }
    },
    {
      "port": 10081,
      "protocol": "http",
      "sniffing": {
        "enabled": true,
        "destOverride": [
          "http",
          "tls"
        ]
      }
    }
  ],
  "outbounds": [{
      "tag": "proxy-vmess",
      "protocol": "vmess",
      "settings": {
        "vnext": [{
          "address": "149.129.124.8",
          "port": 8668,
          "users": [{
            "id": "58344b0a-a516-4034-bcfc-5de84fa2722f",
            "alterId": 100,
            "email": "t@t.tt",
            "security": "auto"
          }]
        }]
      },
      "streamSettings": {
        "network": "ws",
        "wsSettings": {
          "connectionReuse": true
        }
      },
      "mux": {
        "enabled": true,
        "concurrency": 8
      }
    },
    {
      "tag": "direct",
      "settings": {},
      "protocol": "freedom"
    }
  ],
  "dns": {
    "server": [
      "8.8.8.8",
      "1.1.1.1"
    ],
    // 你的 IP 地址，用于 DNS 解析离你最快的 CDN
    "clientIp": "171.9.55.216"
  },
  // 配置路由功能，绕过局域网和中国大陆地址
  "routing": {
    "domainStrategy": "IPOnDemand",
    "rules": [{
        "type": "field",
        "domain": [
          // 默认跳过国内网站，如果想要代理某个国内网站可以添加到下列列表中
          "cnblogs.com"
        ],
        "outboundTag": "proxy-vmess"
      },
      {
        "type": "field",
        "domain": [
          "geosite:cn"
        ],
        "outboundTag": "direct"
      },
      {
        "type": "field",
        "outboundTag": "direct",
        "ip": [
          "geoip:cn",
          "geoip:private"
        ]
      }
    ]
  }
}